{
  "Name": "Aimes",
  "Provider": {
    "Name": "Aimes",
    "ProviderId": 2,
    "ImageUrl": "http://www.liverpoolvision.co.uk/wp-content/uploads/2014/01/Aimes_logo-300x290.jpg",
    "Location": "United Kingdom"
  },
  "Metrics": [
    {
      "Id": 196,
      "SlaId": "CO-01.1",
      "Question": "Do you produce audit assertions using a structured, industry accepted format (ex. CloudAudit/A6 URI Ontology, CloudTrust, SCAP/CYBEX, GRC XML, ISACA's Cloud Computing Management Audit/Assurance Program, etc.)?",
      "Answer": "YES Note: Please see our Infrastructure as a Service Providers STAR  http://media.amazonwebservices.com/AWS_Risk_and_Compliance_Whitepaper.pdf",
      "Value": 1,
      "ProviderId": 2
    },
    {
      "Id": 197,
      "SlaId": "CO-02.1",
      "Question": "Do you allow tenants to view your SAS70 Type II/SSAE 16 SOC2/ISAE3402 or similar third party audit reports?",
      "Answer": "NO Note: Red Hat Security regularly scans all Internet facing service endpoint IP addresses for vulnerabilities (these scans do not include customer instances). Red Hat Security notifies the appropriate parties to remediate any identified vulnerabilities. In addition, external vulnerability threat assessments are performed regularly by independent security firms. Findings and recommendations resulting from these assessments are categorized and delivered to Red Hat leadership.  In addition, the Red Hat control environment is subject to regular internal and external risk assessments. Red Hat engages with external certifying bodies and independent auditors to review and test the Red Hat overall control environment.   Red Hat uses an automated configuration management tool to assure configurations are consistent and validated with SCAP reporting.",
      "Value": 0,
      "ProviderId": 2
    },
    {
      "Id": 198,
      "SlaId": "CO-02.2",
      "Question": "Do you conduct network penetration tests of your cloud service infrastructure regularly as prescribed by industry best practices and guidance? ",
      "Answer": "YES Note: ",
      "Value": 1,
      "ProviderId": 2
    },
    {
      "Id": 199,
      "SlaId": "CO-02.3",
      "Question": "Do you conduct regular application penetration tests of your cloud  infrastructure  as prescribed by industry best practices and guidance? ",
      "Answer": "YES Note: ",
      "Value": 1,
      "ProviderId": 2
    },
    {
      "Id": 200,
      "SlaId": "CO-02.4",
      "Question": "Do you conduct internal audits regularly as prescribed by industry best practices and guidance? ",
      "Answer": "YES Note: ",
      "Value": 1,
      "ProviderId": 2
    },
    {
      "Id": 201,
      "SlaId": "CO-02.5",
      "Question": "Do you conduct external audits regularly as prescribed by industry best practices and guidance?  ",
      "Answer": "YES Note: ",
      "Value": 1,
      "ProviderId": 2
    },
    {
      "Id": 202,
      "SlaId": "CO-02.6",
      "Question": "Are the results of the network penetration tests available to tenants at their request?  ",
      "Answer": "NO Note: ",
      "Value": 0,
      "ProviderId": 2
    },
    {
      "Id": 203,
      "SlaId": "CO-02.7",
      "Question": "Are the results of internal and external audits available to tenants at their request?",
      "Answer": "NO Note: ",
      "Value": 0,
      "ProviderId": 2
    },
    {
      "Id": 204,
      "SlaId": "CO-03.1",
      "Question": "Do you permit tenants to perform independent vulnerability assessments?",
      "Answer": "YES Note: The customer must request a “Customer Vulnerability Scan Request” form and get it approved by Red Hat before doing any vulnerability assessments.",
      "Value": 1,
      "ProviderId": 2
    },
    {
      "Id": 205,
      "SlaId": "CO-03.2",
      "Question": "Do you have external third-party conduct vulnerability scans and periodic penetration tests on your applications and networks?",
      "Answer": "NO Note: ",
      "Value": 0,
      "ProviderId": 2
    },
    {
      "Id": 206,
      "SlaId": "CO-04.1",
      "Question": "Do you maintain liaisons and points of contact with local authorities in accordance with contracts and appropriate regulations?",
      "Answer": "YES Note: Red Hat maintains contacts with industry bodies, risk and compliance organizations, local authorities and regulatory bodies as required by the ISO 27001 standard.",
      "Value": 1,
      "ProviderId": 2
    },
    {
      "Id": 207,
      "SlaId": "CO-05.1",
      "Question": "Do you have the ability to logically segment or encrypt customer data such that data may be produced for a single tenant only, without inadvertently accessing another tenant's data? ",
      "Answer": "YES Note: All data stored by Red Hat on behalf of customers has strong tenant isolation security and control capabilities. Customers retain control and ownership of their data, thus it is their responsibility to choose to encrypt the data. Red Hat allows customers to use their own encryption mechanism.  OpenShift utilizes SELinux, Cgroups., and Polyinstantiation to assure user segmentation.  Customer data is stored in a disk snap shot.  Customer will have their git repository stored locally for their back up.",
      "Value": 1,
      "ProviderId": 2
    },
    {
      "Id": 208,
      "SlaId": "CO-05.2",
      "Question": "Do you have capability to logically segment and recover data for a specific customer in the case of a failure or data loss? ",
      "Answer": "YES Note: ",
      "Value": 1,
      "ProviderId": 2
    },
    {
      "Id": 209,
      "SlaId": "CO-06.1",
      "Question": "Do you have policies and procedures in place describing what controls you have in place to protect tenants intellectual property? ",
      "Answer": "YES Note: Please see our Infrastructure as a Service Providers STAR  http://media.amazonwebservices.com/AWS_Risk_and_Compliance_Whitepaper.pdf",
      "Value": 1,
      "ProviderId": 2
    },
    {
      "Id": 210,
      "SlaId": "CO-07.1",
      "Question": "If utilization of tenants services housed in the cloud is mined for cloud provider benefit, are the tenants IP rights preserved?  ",
      "Answer": "YES Note: Red Hat does not collect customer's intellectual property as part of resource utilization monitoring.\n",
      "Value": 1,
      "ProviderId": 2
    },
    {
      "Id": 211,
      "SlaId": "CO-08.1",
      "Question": "If utilization of tenants services housed in the cloud is mined for cloud provider benefit, do you provide tenants the ability to opt-out?  ",
      "Answer": "NO Note: Utilization of customer services housed in the cloud is not mined.\n",
      "Value": 0,
      "ProviderId": 2
    },
    {
      "Id": 212,
      "SlaId": "DG-01.1",
      "Question": "Do you follow a structured data-labeling standard (ex. ISO 15489, Oasis XML Catalog Specification, CSA data type guidance)?",
      "Answer": "NO Note: Red Hat customers retain control and ownership of their data and may implement a structured data-labeling standard to meet their requirements.",
      "Value": 0,
      "ProviderId": 2
    },
    {
      "Id": 213,
      "SlaId": "DG-02.1",
      "Question": "Do you provide a capability to identify virtual machines via policy tags/metadata (ex. Tags can be used to limit guest operating systems from booting/instantiating/transporting data in the wrong country, etc.)?",
      "Answer": "NO Note: Please see our Infrastructure as a Service Providers STAR  http://media.amazonwebservices.com/AWS_Risk_and_Compliance_Whitepaper.pdf",
      "Value": 0,
      "ProviderId": 2
    },
    {
      "Id": 214,
      "SlaId": "DG-02.2",
      "Question": "Do you provide a capability to identify hardware via policy tags/metadata/hardware tags (ex. TXT/TPM, VN-Tag, etc.)?",
      "Answer": "NO Note: Please see our Infrastructure as a Service Providers STAR  http://media.amazonwebservices.com/AWS_Risk_and_Compliance_Whitepaper.pdf",
      "Value": 0,
      "ProviderId": 2
    },
    {
      "Id": 215,
      "SlaId": "DG-02.3",
      "Question": "Do you have a capability to use system geographic location as an authentication factor? ",
      "Answer": "NO Note: Please see our Infrastructure as a Service Providers STAR  http://media.amazonwebservices.com/AWS_Risk_and_Compliance_Whitepaper.pdf",
      "Value": 0,
      "ProviderId": 2
    },
    {
      "Id": 216,
      "SlaId": "DG-02.4",
      "Question": "Can you provide the physical location/geography of storage of a tenant’s data upon request?",
      "Answer": "YES Note: Currently OpenShift only has one data center location.",
      "Value": 1,
      "ProviderId": 2
    },
    {
      "Id": 217,
      "SlaId": "DG-02.5",
      "Question": "Do you allow tenants to define acceptable geographical locations for data routing or resource instantiation?    ",
      "Answer": "NO Note: Not at this time.  It is on the roadmap",
      "Value": 0,
      "ProviderId": 2
    },
    {
      "Id": 218,
      "SlaId": "DG-03.1",
      "Question": "Are Polices and procedures established for labeling, handling and security of data and objects which contain data?",
      "Answer": "YES Note: Red Hat customers retain control and ownership of their data and may implement a labeling and handing policy and procedures to meet their requirements.\n",
      "Value": 1,
      "ProviderId": 2
    },
    {
      "Id": 219,
      "SlaId": "DG-03.2",
      "Question": "Are mechanisms for label inheritance implemented for objects that acts as aggregate containers for data?",
      "Answer": "NO Note: ",
      "Value": 0,
      "ProviderId": 2
    },
    {
      "Id": 220,
      "SlaId": "DG-04.1",
      "Question": "Do you have technical control capabilities to enforce tenant data retention policies?",
      "Answer": "YES Note: Red Hat provides customers with the ability to delete their data. However, Red Hat customers retain control and ownership of their data so it is the customers responsibility to manage data  retention to their own requirements.  Red Hat errors on the side of protecting customer privacy and is vigilant in determining which law enforcement requests we must comply with. Red Hat does not hesitate to challenge orders from law enforcement if we think the orders lack a solid basis.",
      "Value": 1,
      "ProviderId": 2
    },
    {
      "Id": 221,
      "SlaId": "DG-04.2",
      "Question": "Do you have a documented procedure for responding to requests for tenant data from governments or third parties?                                                     ",
      "Answer": "NO Note: ",
      "Value": 0,
      "ProviderId": 2
    },
    {
      "Id": 222,
      "SlaId": "DG-05.1",
      "Question": "Do you support secure deletion (ex. degaussing / cryptographic wiping) of archived data as determined by the tenant?  ",
      "Answer": "NO Note: Please see our Infrastructure as a Service Providers STAR  http://media.amazonwebservices.com/AWS_Risk_and_Compliance_Whitepaper.pdf",
      "Value": 0,
      "ProviderId": 2
    },
    {
      "Id": 223,
      "SlaId": "DG-05.2",
      "Question": "Can you provide a published procedure for exiting the service arrangement, including assurance to sanitize all computing resources of tenant data once a customer has exited your environment or has vacated a resource? ",
      "Answer": "YES Note: A customer must delete all their applications.",
      "Value": 1,
      "ProviderId": 2
    },
    {
      "Id": 224,
      "SlaId": "DG-06.1",
      "Question": "Do you have procedures in place to ensure production data shall not be replicated or used in non-production environments?",
      "Answer": "YES Note: The OpenShift operations team (ops) maintains all production and some non-production environments. The OpenShift development team does not have access to the production environment or production data.",
      "Value": 1,
      "ProviderId": 2
    },
    {
      "Id": 225,
      "SlaId": "DG-07.1",
      "Question": "Do you have controls in place to prevent data leakage or intentional/accidental compromise between tenants in a multi-tenant environment?",
      "Answer": "YES Note: The OpenShift environment is a virtualized, multi-tenant environment. Red Hat has implemented security management processes, some PCI-relevant controls, and other security tools and processes designed to isolate each customer from other customers. OpenShift systems are designed to prevent customers from accessing unauthorized virtual machine instances through the use of filtering tools and key-based authentication mechanisms. Amazon controls access to the physical hardware running the OpenShift instances, see their STAR report for details.",
      "Value": 1,
      "ProviderId": 2
    },
    {
      "Id": 226,
      "SlaId": "DG-07.2",
      "Question": "Do you have a Data Loss Prevention (DLP) or extrusion prevention solution in place for all systems which interface with your cloud service offering?",
      "Answer": "NO Note: ",
      "Value": 0,
      "ProviderId": 2
    },
    {
      "Id": 227,
      "SlaId": "DG-08.1",
      "Question": "Do you provide security control health data in order to allow tenants to implement industry standard Continuous Monitoring (which allows continual tenant validation of your physical and logical control status?)",
      "Answer": "NO Note: Red Hat does not publish independent auditor reports and certifications to provide customers with considerable information regarding the policies, processes, and controls established and operated by Red Hat. Continuous Monitoring of logical controls can be executed by customers on their own systems.",
      "Value": 0,
      "ProviderId": 2
    },
    {
      "Id": 228,
      "SlaId": "FS-01.1",
      "Question": "Can you provide evidence that policies and procedures have been established for maintaining a safe and secure working environment in offices, rooms, facilities and secure areas? ",
      "Answer": "YES Note: Red Hat applies all applicable standards involving the workplace e.g., OHSA.    Red Hat's policies and procedures are available for review by customers and prospective customers with NDA in place.                                                                                                            Our IaaS provider (Amazon) also has their own.",
      "Value": 1,
      "ProviderId": 2
    },
    {
      "Id": 229,
      "SlaId": "FS-02.1",
      "Question": "Pursuant to local laws, regulations, ethics and contractual constraints are all employment candidates, contractors and third parties subject to background verification?",
      "Answer": "YES Note: Red Hat conducts work history background checks, as permitted by applicable law, as part of pre-employment screening practices for employees commensurate with the employee’s position and level of access to customers data.",
      "Value": 1,
      "ProviderId": 2
    },
    {
      "Id": 230,
      "SlaId": "FS-03.1",
      "Question": "Are physical security perimeters (fences, walls, barriers, guards, gates, electronic surveillance, physical authentication mechanisms, reception desks and security patrols) implemented?",
      "Answer": "YES Note: Please see our Infrastructure as a Service Providers STAR  http://media.amazonwebservices.com/AWS_Risk_and_Compliance_Whitepaper.pdf",
      "Value": 1,
      "ProviderId": 2
    },
    {
      "Id": 231,
      "SlaId": "FS-04.1",
      "Question": "Do you allow tenants to specify which of your geographic locations their data is allowed to traverse into/out of (to address legal jurisdictional considerations based on where data is stored vs. accessed)?",
      "Answer": "NO Note: OpenShift currently only resides in one datacenter. Multi-geography support is not yet implemented.",
      "Value": 0,
      "ProviderId": 2
    },
    {
      "Id": 232,
      "SlaId": "FS-05.1",
      "Question": "Are ingress and egress points such as service areas and other points where unauthorized personnel may enter the premises monitored, controlled and isolated from data storage and process?",
      "Answer": "YES Note: Please see our Infrastructure as a Service Providers STAR  http://media.amazonwebservices.com/AWS_Risk_and_Compliance_Whitepaper.pdf",
      "Value": 1,
      "ProviderId": 2
    },
    {
      "Id": 233,
      "SlaId": "FS-06.1",
      "Question": "Do you provide tenants with documentation that describes scenarios where data may be moved from one physical location to another? (ex. Offsite backups, business continuity failovers, replication)",
      "Answer": "NO Note: Currently OpenShift only has one data center location.",
      "Value": 0,
      "ProviderId": 2
    },
    {
      "Id": 234,
      "SlaId": "FS-07.1",
      "Question": "Do you provide tenants with documentation describing your policies and procedures governing asset management and repurposing of equipment?",
      "Answer": "NO Note: Please see our Infrastructure as a Service Providers STAR  http://media.amazonwebservices.com/AWS_Risk_and_Compliance_Whitepaper.pdf",
      "Value": 0,
      "ProviderId": 2
    },
    {
      "Id": 235,
      "SlaId": "FS-08.1",
      "Question": "Do you maintain a complete inventory of all of your critical assets which includes ownership of the asset?",
      "Answer": "YES Note: Please see our Infrastructure as a Service Providers STAR  http://media.amazonwebservices.com/AWS_Risk_and_Compliance_Whitepaper.pdf",
      "Value": 1,
      "ProviderId": 2
    },
    {
      "Id": 236,
      "SlaId": "FS-08.2",
      "Question": "Do you maintain a complete inventory of all of your critical supplier relationships?",
      "Answer": "YES Note: Red Hat maintains complete inventory of critical suppliers and is available on request with a Non-Disclosure in place.",
      "Value": 1,
      "ProviderId": 2
    },
    {
      "Id": 237,
      "SlaId": "HR-01.1",
      "Question": "Pursuant to local laws, regulations, ethics and contractual constraints are all employment candidates, contractors and third parties subject to background verification?",
      "Answer": "YES Note: Red Hat conducts work history background checks, as permitted by applicable law, as part of pre-employment screening practices for employees commensurate with the employee’s position and level of access to customers data.",
      "Value": 1,
      "ProviderId": 2
    },
    {
      "Id": 238,
      "SlaId": "HR-02.1",
      "Question": "Do you specifically train your employees regarding their role vs. the tenant's role in providing information security controls?",
      "Answer": "YES Note: Every employee is provided with the Company’s Code of Business Conduct and Ethics and completes periodic Information Security training. Compliance audits are periodically performed to validate that employees understand and follow the established policies. The OpenShift Terms of Service (ToS) details customers' roles. Red Hat members of the OpenShift team are required to be familiar with the ToS.",
      "Value": 1,
      "ProviderId": 2
    },
    {
      "Id": 239,
      "SlaId": "HR-02.2",
      "Question": "Do you document employee acknowledgment of training they have completed?",
      "Answer": "YES Note: ",
      "Value": 1,
      "ProviderId": 2
    },
    {
      "Id": 240,
      "SlaId": "HR-03.1",
      "Question": "Are Roles and responsibilities for following performing employment termination or change in employment procedures assigned, documented and communicated?",
      "Answer": "YES Note: Red Hat Human Resources team defines internal management responsibilities to be followed for termination and role change of employees and vendors. The responsibility for provisioning /de-provisioning employee and contractor access is shared across Human Resources (HR), Corporate Operations and Service Owners.",
      "Value": 1,
      "ProviderId": 2
    },
    {
      "Id": 241,
      "SlaId": "IS-01.1",
      "Question": "Do you provide tenants with documentation describing your Information Security Management Program (ISMP)?",
      "Answer": "NO Note: Not at this time.",
      "Value": 0,
      "ProviderId": 2
    },
    {
      "Id": 242,
      "SlaId": "IS-02.1",
      "Question": "Are policies in place to ensure executive and line management take formal action to support information security through clear documented direction, commitment, explicit assignment and verification of assignment execution? ",
      "Answer": "YES Note: Red Hat aligns with ISO 27001 standards, policies and procedures have been established.  The control environment at Red Hat begins at the highest level of the company. Executive and senior leadership play important roles in establishing the company's tone and core values.",
      "Value": 1,
      "ProviderId": 2
    },
    {
      "Id": 243,
      "SlaId": "IS-03.1",
      "Question": "Do your information security and privacy policies align with particular industry standards (ISO-27001, ISO-22307, CoBIT, etc.)?",
      "Answer": "YES Note: Policies and procedures have been established by Red Hat Information Security based upon the COBIT framework, ISO 27001 standards and the PCI DSS requirements.",
      "Value": 1,
      "ProviderId": 2
    },
    {
      "Id": 244,
      "SlaId": "IS-03.2",
      "Question": "Do you have agreements which ensure your providers adhere to your information security and privacy policies?",
      "Answer": "YES Note: ",
      "Value": 1,
      "ProviderId": 2
    },
    {
      "Id": 245,
      "SlaId": "IS-03.3",
      "Question": "Can you provide evidence of due diligence mapping of your controls, architecture  and processes  to regulations and/or standards?  ",
      "Answer": "NO Note: ",
      "Value": 0,
      "ProviderId": 2
    },
    {
      "Id": 246,
      "SlaId": "IS-04.1",
      "Question": "Do you have documented information security baselines for every component of your infrastructure (ex. Hypervisors, operating systems, routers, DNS servers, etc.)?",
      "Answer": "YES Note: In alignment with ISO 27001 standards, Red Hat maintains system baselines for critical components.",
      "Value": 1,
      "ProviderId": 2
    },
    {
      "Id": 247,
      "SlaId": "IS-04.2",
      "Question": "Do you have a capability to continuously monitor and report the compliance of your infrastructure against your information security baselines?",
      "Answer": "YES Note: ",
      "Value": 1,
      "ProviderId": 2
    },
    {
      "Id": 248,
      "SlaId": "IS-04.3",
      "Question": "Do you allow your clients to provide their own trusted virtual machine image to ensure conformance to their own internal standards?",
      "Answer": "NO Note: ",
      "Value": 0,
      "ProviderId": 2
    },
    {
      "Id": 249,
      "SlaId": "IS-05.1",
      "Question": "Do you notify your tenants when you make material changes to your information security and/or privacy policies?",
      "Answer": "YES Note: Red Hat OpenShift notifies tenants via the blogs and emails for changes to the security and privacy policy\n",
      "Value": 1,
      "ProviderId": 2
    },
    {
      "Id": 250,
      "SlaId": "IS-06.1",
      "Question": "Is a formal disciplinary or sanction policy established for employees who have violated security policies and procedures?",
      "Answer": "YES Note: Red Hat provides security policy and provides security training to employees to educate them as to their role and responsibilities concerning information security. Employees who violate Red Hat standards or protocols are investigated and appropriate disciplinary action (e.g. Warning, performance plan, suspension, and/or termination) is followed. ",
      "Value": 1,
      "ProviderId": 2
    },
    {
      "Id": 251,
      "SlaId": "IS-06.2",
      "Question": "Are employees made aware of what action might be taken in the event of a violation and stated as such in the policies and procedures?",
      "Answer": "YES Note: ",
      "Value": 1,
      "ProviderId": 2
    },
    {
      "Id": 252,
      "SlaId": "IS-07.1",
      "Question": "Do you have controls in place ensuring timely removal of systems access which is no longer required for business purposes?",
      "Answer": "YES Note: Access is automatically revoked when an employee’s record is terminated in Red Hat’s Human Resources system. When changes in an employee's job function occur, continued access must be explicitly approved to the resource or it will be automatically revoked.",
      "Value": 1,
      "ProviderId": 2
    },
    {
      "Id": 253,
      "SlaId": "IS-07.2",
      "Question": "Do you provide metrics which track the speed with which you are able to remove systems access which is no longer required for business purposes?",
      "Answer": "YES Note: ",
      "Value": 1,
      "ProviderId": 2
    },
    {
      "Id": 254,
      "SlaId": "IS-08.1",
      "Question": "Do you document how you grant and approve access to tenant data?",
      "Answer": "YES Note: Red Hat customers retain control and ownership of their data. Customers are responsible for the development, content, operation, maintenance, and use of their content.",
      "Value": 1,
      "ProviderId": 2
    },
    {
      "Id": 255,
      "SlaId": "IS-08.2",
      "Question": "Do you have a method of aligning provider and tenant data classification methodologies for access control purposes?",
      "Answer": "NO Note: ",
      "Value": 0,
      "ProviderId": 2
    },
    {
      "Id": 256,
      "SlaId": "IS-09.1",
      "Question": "Is timely deprovisioning, revocation or modification of user access to the organizations systems, information assets and data implemented upon any change in status of employees, contractors, customers, business partners or third parties?",
      "Answer": "YES Note: Access is automatically revoked when an employee’s record is terminated in Red Hat’s Human Resources system. When changes in an employee's job function occur, continued access must be explicitly approved to the resource or it will be automatically revoked.",
      "Value": 1,
      "ProviderId": 2
    },
    {
      "Id": 257,
      "SlaId": "IS-09.2",
      "Question": "Is any change in status intended to include termination of employment, contract or agreement, change of employment or transfer within the organization?",
      "Answer": "YES Note: ",
      "Value": 1,
      "ProviderId": 2
    },
    {
      "Id": 258,
      "SlaId": "IS-10.1",
      "Question": "Do you require at least annual certification of entitlements for all system users and administrators (exclusive of users maintained by your tenants)?",
      "Answer": "NO Note: In alignment with ISO 27001 standard, all access grants are reviewed every 90 days. ",
      "Value": 0,
      "ProviderId": 2
    },
    {
      "Id": 259,
      "SlaId": "IS-10.2",
      "Question": "If users are found to have inappropriate entitlements, are all remediation and certification actions recorded?",
      "Answer": "NO Note: ",
      "Value": 0,
      "ProviderId": 2
    },
    {
      "Id": 260,
      "SlaId": "IS-10.3",
      "Question": "Will you share user entitlement remediation and certification reports with your tenants, if inappropriate access may have been allowed to tenant data?",
      "Answer": "NO Note: ",
      "Value": 0,
      "ProviderId": 2
    },
    {
      "Id": 261,
      "SlaId": "IS-11.1",
      "Question": "Do you provide or make available a formal security awareness training program for cloud-related access and data management issues (i.e., multi-tenancy, nationality, cloud delivery model segregation of duties implications, and conflicts of interest) for all persons with access to tenant data?",
      "Answer": "NO Note: In alignment with ISO 27001 standard, all Red Hat employees complete periodic Information Security training which requires an acknowledgment to complete. Compliance audits are periodically performed to validate that employees understand and follow the established policies.",
      "Value": 0,
      "ProviderId": 2
    },
    {
      "Id": 262,
      "SlaId": "IS-11.2",
      "Question": "Are administrators and data stewards properly educated on their legal responsibilities with regard to security and data integrity?",
      "Answer": "YES Note: ",
      "Value": 1,
      "ProviderId": 2
    },
    {
      "Id": 263,
      "SlaId": "IS-12.1",
      "Question": "Do you participate in industry groups and professional associations related to information security?",
      "Answer": "YES Note: Red Hat Compliance and Security teams maintain contacts with industry groups and professional services related to security. Red Hat has established an information security framework and policies based upon the COBIT framework and  have integrated the ISO 27001 certifiable framework based on ISO 27002 controls and the PCI DSS.\n",
      "Value": 1,
      "ProviderId": 2
    },
    {
      "Id": 264,
      "SlaId": "IS-12.2",
      "Question": "Do you benchmark your security controls against industry standards? ",
      "Answer": "YES Note: ",
      "Value": 1,
      "ProviderId": 2
    },
    {
      "Id": 265,
      "SlaId": "IS-13.1",
      "Question": "Do you provide tenants with a role definition document clarifying your administrative responsibilities vs. those of the tenant?",
      "Answer": "NO Note: Not at this time.",
      "Value": 0,
      "ProviderId": 2
    },
    {
      "Id": 266,
      "SlaId": "IS-14.1",
      "Question": "Are Managers responsible for maintaining awareness of and complying with security policies, procedures and standards that are relevant to their area of responsibility?",
      "Answer": "YES Note: Red Hat aligns with ISO 27001 standards, policies and procedures have been established.  The control environment at Red Hat begins at the highest level of the company. Executive and senior leadership play important roles in establishing the company's tone and core values.",
      "Value": 1,
      "ProviderId": 2
    },
    {
      "Id": 267,
      "SlaId": "IS-15.1",
      "Question": "Do you provide tenants with documentation on how you maintain segregation of duties within your cloud service offering?",
      "Answer": "YES Note: Red Hat has documentation online on how segmentation is created in Open Shift.",
      "Value": 1,
      "ProviderId": 2
    },
    {
      "Id": 268,
      "SlaId": "IS-16.1",
      "Question": "Are users made aware of their responsibilities for maintaining awareness and compliance with published security policies, procedures, standards and applicable regulatory requirements?",
      "Answer": "YES Note: Red Hat has implemented various methods of internal communication at a global level to help employees understand their individual roles and responsibilities and to communicate significant events in a timely manner. These methods include orientation and training programs for newly hired employee as well as electronic mail messages and the posting of information via the Red Hat intranet.",
      "Value": 1,
      "ProviderId": 2
    },
    {
      "Id": 269,
      "SlaId": "IS-16.2",
      "Question": "Are users made aware of their responsibilities for maintaining a safe and secure working environment?",
      "Answer": "YES Note: ",
      "Value": 1,
      "ProviderId": 2
    },
    {
      "Id": 270,
      "SlaId": "IS-16.3",
      "Question": "Are users made aware of their responsibilities for leaving unattended equipment in a secure manner?",
      "Answer": "NO Note: ",
      "Value": 0,
      "ProviderId": 2
    },
    {
      "Id": 271,
      "SlaId": "IS-17.1",
      "Question": "Do your data management policies and procedures address tenant and service level conflicts of interests?",
      "Answer": "NO Note: Red Hat data management policies are in alignment with ISO 27001 standard.",
      "Value": 0,
      "ProviderId": 2
    },
    {
      "Id": 272,
      "SlaId": "IS-17.2",
      "Question": "Do your data management policies and procedures include a tamper audit or software integrity function for unauthorized access to tenant data?",
      "Answer": "YES Note: ",
      "Value": 1,
      "ProviderId": 2
    },
    {
      "Id": 273,
      "SlaId": "IS-17.3",
      "Question": "Does the virtual machine management infrastructure include a tamper audit or software integrity function to detect changes to the build/configuration of the virtual machine?",
      "Answer": "YES Note: ",
      "Value": 1,
      "ProviderId": 2
    },
    {
      "Id": 274,
      "SlaId": "IS-18.1",
      "Question": "Do you have a capability to allow creation of unique encryption keys per tenant?",
      "Answer": "YES Note: Red Hat Customers manage their own encryption.",
      "Value": 1,
      "ProviderId": 2
    },
    {
      "Id": 275,
      "SlaId": "IS-18.2",
      "Question": "Do you support tenant generated encryption keys or permit tenants to encrypt data to an identity without access to a public key certificate. (e.g. Identity based encryption)?",
      "Answer": "YES Note: ",
      "Value": 1,
      "ProviderId": 2
    },
    {
      "Id": 276,
      "SlaId": "IS-19.1",
      "Question": "Do you encrypt tenant data at rest (on disk/storage) within your environment?",
      "Answer": "NO Note: Red Hat allows customers to use their own encryption mechanisms for nearly all the services such as gear and ssh authentication.",
      "Value": 0,
      "ProviderId": 2
    },
    {
      "Id": 277,
      "SlaId": "IS-19.2",
      "Question": "Do you leverage encryption to protect data and virtual machine images during transport across and between networks and hypervisor instances?",
      "Answer": "YES Note: ",
      "Value": 1,
      "ProviderId": 2
    },
    {
      "Id": 278,
      "SlaId": "IS-19.3",
      "Question": "Do you have a capability to manage encryption keys on behalf of tenants?",
      "Answer": "NO Note: ",
      "Value": 0,
      "ProviderId": 2
    },
    {
      "Id": 279,
      "SlaId": "IS-19.4",
      "Question": "Do you maintain key management procedures?",
      "Answer": "NO Note: ",
      "Value": 0,
      "ProviderId": 2
    },
    {
      "Id": 280,
      "SlaId": "IS-20.1",
      "Question": "Do you conduct network-layer vulnerability scans regularly as prescribed by industry best practices?",
      "Answer": "YES Note: Red Hat Security regularly scans all Internet-facing service endpoint IP addresses for vulnerabilities.  Red Hat Security notifies the appropriate parties to remediate any identified vulnerabilities. Information regarding vulnerability scans and specific vulnerability patching is not disclosed at this time.",
      "Value": 1,
      "ProviderId": 2
    },
    {
      "Id": 281,
      "SlaId": "IS-20.2",
      "Question": "Do you conduct application-layer vulnerability scans regularly as prescribed by industry best practices?",
      "Answer": "YES Note: ",
      "Value": 1,
      "ProviderId": 2
    },
    {
      "Id": 282,
      "SlaId": "IS-20.3",
      "Question": " Do you conduct local operating system-layer vulnerability scans regularly as prescribed by industry best practices?",
      "Answer": "YES Note: ",
      "Value": 1,
      "ProviderId": 2
    },
    {
      "Id": 283,
      "SlaId": "IS-20.4",
      "Question": "Will you make the results of vulnerability scans available to tenants at their request?   ",
      "Answer": "NO Note: ",
      "Value": 0,
      "ProviderId": 2
    },
    {
      "Id": 284,
      "SlaId": "IS-20.5",
      "Question": "Do you have a capability to rapidly patch vulnerabilities across all of your computing devices, applications, and systems?",
      "Answer": "YES Note: ",
      "Value": 1,
      "ProviderId": 2
    },
    {
      "Id": 285,
      "SlaId": "IS-20.6",
      "Question": "Will you provide your risk-based systems patching timeframes to your tenants upon request?",
      "Answer": "NO Note: ",
      "Value": 0,
      "ProviderId": 2
    },
    {
      "Id": 286,
      "SlaId": "IS-21.1",
      "Question": "Do you have anti-malware programs installed on all systems which support your cloud service offerings?",
      "Answer": "YES Note: Red Hat's program, processes and procedures to managing antivirus / malicious software is in alignment with ISO 27001 standards.",
      "Value": 1,
      "ProviderId": 2
    },
    {
      "Id": 287,
      "SlaId": "IS-21.2",
      "Question": "Do you ensure that security threat detection systems which use signatures, lists, or behavioral patterns are updated across all infrastructure components within industry accepted timeframes?",
      "Answer": "YES Note: ",
      "Value": 1,
      "ProviderId": 2
    },
    {
      "Id": 288,
      "SlaId": "IS-22.1",
      "Question": "Do you have a documented security incident response plan?",
      "Answer": "YES Note: Red Hat's incident response program, plans and procedures have been developed in alignment with ISO 27001 standards. ",
      "Value": 1,
      "ProviderId": 2
    },
    {
      "Id": 289,
      "SlaId": "IS-22.2",
      "Question": "Do you integrate customized tenant requirements into your security incident response plans?",
      "Answer": "NO Note: ",
      "Value": 0,
      "ProviderId": 2
    },
    {
      "Id": 290,
      "SlaId": "IS-22.3",
      "Question": "Do you publish a roles and responsibilities document specifying what you vs. your tenants are responsible for during security incidents?",
      "Answer": "NO Note: ",
      "Value": 0,
      "ProviderId": 2
    },
    {
      "Id": 291,
      "SlaId": "IS-23.1",
      "Question": "Does your security information and event management (SIEM) system merge data sources (app logs, firewall logs, IDS logs, physical access logs, etc.) for granular analysis and alerting?",
      "Answer": "YES Note: Red Hat's incident response program, plans and procedures have been developed in alignment with ISO 27001 standards. ",
      "Value": 1,
      "ProviderId": 2
    },
    {
      "Id": 292,
      "SlaId": "IS-23.2",
      "Question": "Does your logging and monitoring framework allow isolation of an incident to specific tenants?",
      "Answer": "YES Note: ",
      "Value": 1,
      "ProviderId": 2
    },
    {
      "Id": 293,
      "SlaId": "IS-24.1",
      "Question": "Does your incident response plan comply with industry standards for legally admissible chain-of-custody management processes & controls?",
      "Answer": "YES Note: Red Hat's incident response program, plans and procedures have been developed in alignment with ISO 27001 standards. ",
      "Value": 1,
      "ProviderId": 2
    },
    {
      "Id": 294,
      "SlaId": "IS-24.2",
      "Question": "Does your incident response capability include the use of legally admissible forensic data collection and analysis techniques?",
      "Answer": "NO Note: ",
      "Value": 0,
      "ProviderId": 2
    },
    {
      "Id": 295,
      "SlaId": "IS-24.3",
      "Question": "Are you capable of supporting litigation holds (freeze of data from a specific point in time) for a specific tenant without freezing other tenant data?",
      "Answer": "YES Note: ",
      "Value": 1,
      "ProviderId": 2
    },
    {
      "Id": 296,
      "SlaId": "IS-25.1",
      "Question": "Do you monitor and quantify the types, volumes, and impacts on all information security incidents?",
      "Answer": "YES Note: Red Hat Security Metrics are monitored and analyzed in accordance with ISO 27001 standards.",
      "Value": 1,
      "ProviderId": 2
    },
    {
      "Id": 297,
      "SlaId": "IS-25.2",
      "Question": "Will you share statistical information security incident data with your tenants upon request?",
      "Answer": "NO Note: ",
      "Value": 0,
      "ProviderId": 2
    },
    {
      "Id": 298,
      "SlaId": "IS-26.1",
      "Question": "Do you provide documentation regarding how you may utilize or access tenant data and/or metadata?",
      "Answer": "YES Note: Red Hat customers retain control and ownership of their data.",
      "Value": 1,
      "ProviderId": 2
    },
    {
      "Id": 299,
      "SlaId": "IS-26.2",
      "Question": "Do you collect or create metadata about tenant data usage through the use of inspection technologies (search engines, etc.)?",
      "Answer": "YES Note: ",
      "Value": 1,
      "ProviderId": 2
    },
    {
      "Id": 300,
      "SlaId": "IS-26.3",
      "Question": "Do you allow tenants to opt-out of having their data/metadata accessed via inspection technologies?",
      "Answer": "NO Note: ",
      "Value": 0,
      "ProviderId": 2
    },
    {
      "Id": 301,
      "SlaId": "IS-27.1",
      "Question": "Are systems in place to monitor for privacy breaches and notify tenants expeditiously if a privacy event may have impacted their data?",
      "Answer": "NO Note: Red Hat customers retain the responsibility to monitor their own environment for privacy breaches.",
      "Value": 0,
      "ProviderId": 2
    },
    {
      "Id": 302,
      "SlaId": "IS-27.2",
      "Question": "Is your Privacy Policy aligned with industry standards?",
      "Answer": "YES Note: ",
      "Value": 1,
      "ProviderId": 2
    },
    {
      "Id": 303,
      "SlaId": "IS-28.1",
      "Question": "Do you provide open encryption methodologies (3.4ES, AES, etc.) to tenants in order for them to protect their data if it is required to traverse public networks? (ex. the Internet)",
      "Answer": "YES Note: All of the Red Hat APIs are available via SSL- protected endpoints which provide server authentication. Red Hat allows customers to use their own encryption mechanisms for gear and ssh authentication.",
      "Value": 1,
      "ProviderId": 2
    },
    {
      "Id": 304,
      "SlaId": "IS-28.2",
      "Question": "Do you utilize open encryption methodologies any time your infrastructure components need to communicate to each other over public networks (ex. Internet-based replication of data from one environment to another)?",
      "Answer": "NO Note: ",
      "Value": 0,
      "ProviderId": 2
    },
    {
      "Id": 305,
      "SlaId": "IS-29.1",
      "Question": "Do you restrict, log, and monitor access to your information security management systems? (Ex. Hypervisors, firewalls, vulnerability scanners, network sniffers, APIs, etc.)",
      "Answer": "YES Note: In alignment with ISO 27001 standards, Red Hat has established formal policies, procedures to delineate the minimum standards for logical access to Red Hat resources.",
      "Value": 1,
      "ProviderId": 2
    },
    {
      "Id": 306,
      "SlaId": "IS-30.1",
      "Question": "Do you utilize dedicated secure networks to provide management access to your cloud service infrastructure?",
      "Answer": "NO Note: Not at this time.  We are looking at VPC.",
      "Value": 0,
      "ProviderId": 2
    },
    {
      "Id": 307,
      "SlaId": "IS-31.1",
      "Question": "Do you collect capacity and utilization data for all relevant components of your cloud service offering?",
      "Answer": "YES Note: Red Hat manages capacity and utilization data in alignment with ISO 27001 standards.",
      "Value": 1,
      "ProviderId": 2
    },
    {
      "Id": 308,
      "SlaId": "IS-31.2",
      "Question": "Do you provide tenants with capacity planning and utilization reports?",
      "Answer": "NO Note: ",
      "Value": 0,
      "ProviderId": 2
    },
    {
      "Id": 309,
      "SlaId": "IS-32.1",
      "Question": "Are Policies and procedures established and measures implemented to strictly limit access to sensitive data from portable and mobile devices, such as laptops, cell phones, and personal digital assistants (PDAs), which are generally higher-risk than non-portable devices (e.g., desktop computers at the provider organization’s facilities)?",
      "Answer": "NO Note: In alignment with ISO 27001 standards, Red Hat has established formal policies, procedures to delineate the minimum standards for logical access to Red Hat  resources.\n",
      "Value": 0,
      "ProviderId": 2
    },
    {
      "Id": 310,
      "SlaId": "IS-33.1",
      "Question": "Are controls in place to prevent unauthorized access to your application, program or object source code, and assure it is restricted to authorized personnel only?",
      "Answer": "YES Note: In alignment with ISO 27001 standards, Red Hat has established formal policies, procedures to delineate the minimum standards for logical access to Red Hat  resources.",
      "Value": 1,
      "ProviderId": 2
    },
    {
      "Id": 311,
      "SlaId": "IS-33.2",
      "Question": "Are controls in place to prevent unauthorized access  to tenant application, program or object source code, and assure it is restricted to authorized personnel only?",
      "Answer": "YES Note: ",
      "Value": 1,
      "ProviderId": 2
    },
    {
      "Id": 312,
      "SlaId": "IS-34.1",
      "Question": "Are utilities that can significantly manage virtualized partitions (ex. shutdown, clone, etc.) appropriately restricted and monitored? ",
      "Answer": "YES Note: In alignment with ISO 27001 standards, system utilities are appropriately restricted and monitored.",
      "Value": 1,
      "ProviderId": 2
    },
    {
      "Id": 313,
      "SlaId": "IS-34.2",
      "Question": "Do you have a capability to detect attacks which target the virtual infrastructure directly (ex. shimming, Blue Pill, Hyper jumping, etc.)?",
      "Answer": "YES Note: ",
      "Value": 1,
      "ProviderId": 2
    },
    {
      "Id": 314,
      "SlaId": "IS-34.3",
      "Question": "Are attacks which target the virtual infrastructure prevented with technical controls?",
      "Answer": "YES Note: ",
      "Value": 1,
      "ProviderId": 2
    },
    {
      "Id": 315,
      "SlaId": "LG-01.1",
      "Question": "Are requirements for non-disclosure or confidentiality agreements reflecting the organization's needs for the protection of data and operational details identified, documented and reviewed at planned intervals?",
      "Answer": "YES Note: Red Hat Legal Counsel manages and periodically revises the Red Hat non-disclosure agreement (NDA) to reflect Red Hat business needs.",
      "Value": 1,
      "ProviderId": 2
    },
    {
      "Id": 316,
      "SlaId": "LG-02.1",
      "Question": "Do you select and monitor outsourced providers in compliance with laws in the country where the data is processed and stored and transmitted?",
      "Answer": "YES Note: Red Hat does not leverage any third-party cloud providers to deliver OpenShift services to customers. Third party agreements are reviewed by Red Hats Legal Counsel as appropriate.",
      "Value": 1,
      "ProviderId": 2
    },
    {
      "Id": 317,
      "SlaId": "LG-02.2",
      "Question": "Do you select and monitor outsourced providers in compliance with laws in the country where the data originates?",
      "Answer": "NO Note: ",
      "Value": 0,
      "ProviderId": 2
    },
    {
      "Id": 318,
      "SlaId": "LG-02.3",
      "Question": "Does legal counsel review all third party agreements?",
      "Answer": "YES Note: ",
      "Value": 1,
      "ProviderId": 2
    },
    {
      "Id": 319,
      "SlaId": "OP-01.1",
      "Question": "Are policies and procedures established and made available for all personnel to adequately support services operations roles?",
      "Answer": "YES Note: Policies and Procedures have been established through Red Hat Information Security framework based upon the COBIT framework, ISO 27001 standard and the PCI DSS requirements.",
      "Value": 1,
      "ProviderId": 2
    },
    {
      "Id": 320,
      "SlaId": "OP-02.1",
      "Question": "Are Information system documentation (e.g., administrator and user guides, architecture diagrams, etc.) made available to authorized personnel to ensure Configuring, installing, and operating the information system?",
      "Answer": "YES Note: Information System Documentation is made available internal to Red Hat personnel through the use of Red Hat's Intranet site.\n",
      "Value": 1,
      "ProviderId": 2
    },
    {
      "Id": 321,
      "SlaId": "OP-03.1",
      "Question": "Do you provide documentation regarding what levels of system (network, storage, memory, I/O, etc.) oversubscription you maintain and under what circumstances/scenarios?",
      "Answer": "YES Note: Red Hat does not disclose capacity management practices.",
      "Value": 1,
      "ProviderId": 2
    },
    {
      "Id": 322,
      "SlaId": "OP-03.2",
      "Question": "Do you restrict use of the memory oversubscription capabilities present in the hypervisor?",
      "Answer": "NO Note: ",
      "Value": 0,
      "ProviderId": 2
    },
    {
      "Id": 323,
      "SlaId": "OP-04.1",
      "Question": "If using virtual infrastructure, does your cloud solution include hardware independent restore and recovery capabilities?",
      "Answer": "YES Note: Snapshot functionality allows Red Hat to capture and restore gears at any time. Customers can backup and restore their local GIT repository.",
      "Value": 1,
      "ProviderId": 2
    },
    {
      "Id": 324,
      "SlaId": "OP-04.2",
      "Question": "If using virtual infrastructure, do you provide tenants with a capability to restore a Virtual Machine to a previous state in time?",
      "Answer": "NO Note: ",
      "Value": 0,
      "ProviderId": 2
    },
    {
      "Id": 325,
      "SlaId": "OP-04.3",
      "Question": "If using virtual infrastructure, do you allow virtual machine images to be downloaded and ported to a new cloud provider?",
      "Answer": "NO Note: ",
      "Value": 0,
      "ProviderId": 2
    },
    {
      "Id": 326,
      "SlaId": "OP-04.4",
      "Question": "If using virtual infrastructure, are machine images made available to the customer in a way that would allow the customer to replicate those images in their own off-site storage location?",
      "Answer": "NO Note: ",
      "Value": 0,
      "ProviderId": 2
    },
    {
      "Id": 327,
      "SlaId": "OP-04.5",
      "Question": "Does your cloud solution include software / provider independent restore and recovery capabilities?",
      "Answer": "YES Note: ",
      "Value": 1,
      "ProviderId": 2
    },
    {
      "Id": 328,
      "SlaId": "RI-01.1",
      "Question": "Is your organization insured by a 3rd party for losses?",
      "Answer": "YES Note: Red Hat does not provide customer remuneration for losses they may incur due to outages.",
      "Value": 1,
      "ProviderId": 2
    },
    {
      "Id": 329,
      "SlaId": "RI-01.2",
      "Question": "Do your organization's service level agreements provide tenant remuneration for losses they may incur due to outages or losses experienced within your infrastructure?",
      "Answer": "NO Note: ",
      "Value": 0,
      "ProviderId": 2
    },
    {
      "Id": 330,
      "SlaId": "RI-02.1",
      "Question": "Are formal risk assessments aligned with the enterprise-wide framework and performed at least annually, or at planned intervals, determining the likelihood and impact of all identified risks, using qualitative and quantitative methods?",
      "Answer": "YES Note: In alignment with ISO 27001 Red Hat has developed a Risk Management program to mitigate and manage risk.",
      "Value": 1,
      "ProviderId": 2
    },
    {
      "Id": 331,
      "SlaId": "RI-02.2",
      "Question": "Is the likelihood and impact associated with inherent and residual risk determined independently, considering all risk categories (e.g., audit results, threat and vulnerability analysis, and regulatory compliance)?",
      "Answer": "YES Note: ",
      "Value": 1,
      "ProviderId": 2
    },
    {
      "Id": 332,
      "SlaId": "RI-03.1",
      "Question": "Are risks mitigated to acceptable levels based on company-established criteria in accordance with reasonable resolution time frames? ",
      "Answer": "YES Note: In alignment with ISO 27001 standard, Red Hat has developed a Risk Management program to mitigate and manage risk.",
      "Value": 1,
      "ProviderId": 2
    },
    {
      "Id": 333,
      "SlaId": "RI-04.1",
      "Question": "Do risk assessment results include updates to security policies, procedures, standards and controls to ensure they remain relevant and effective?",
      "Answer": "YES Note: Updates to Red Hat security policies, procedures, standards and controls occur on an annual basis in alignment with the ISO 27001 standard.",
      "Value": 1,
      "ProviderId": 2
    },
    {
      "Id": 334,
      "SlaId": "RI-05.1",
      "Question": "Do you provide multi-failure disaster recovery capability?",
      "Answer": "NO Note: Currently OpenShift is in one data center.\n",
      "Value": 0,
      "ProviderId": 2
    },
    {
      "Id": 335,
      "SlaId": "RI-05.2",
      "Question": "Do you monitor service continuity with upstream providers in the event of provider failure?",
      "Answer": "YES Note: ",
      "Value": 1,
      "ProviderId": 2
    },
    {
      "Id": 336,
      "SlaId": "RI-05.3",
      "Question": "Do you have more than one provider for each service you depend on?",
      "Answer": "NO Note: ",
      "Value": 0,
      "ProviderId": 2
    },
    {
      "Id": 337,
      "SlaId": "RI-05.4",
      "Question": "Do you provide access to operational redundancy and continuity summaries which include the services on which you depend?",
      "Answer": "NO Note: ",
      "Value": 0,
      "ProviderId": 2
    },
    {
      "Id": 338,
      "SlaId": "RI-05.5",
      "Question": "Do you provide the tenant the ability to declare a disaster?",
      "Answer": "NO Note: ",
      "Value": 0,
      "ProviderId": 2
    },
    {
      "Id": 339,
      "SlaId": "RI-05.6",
      "Question": "Do you provided a tenant triggered failover option?",
      "Answer": "NO Note: ",
      "Value": 0,
      "ProviderId": 2
    },
    {
      "Id": 340,
      "SlaId": "RI-05.7",
      "Question": "Do you share your business continuity and redundancy plans with your tenants?",
      "Answer": "NO Note: ",
      "Value": 0,
      "ProviderId": 2
    },
    {
      "Id": 341,
      "SlaId": "RM-01.1",
      "Question": "Are policies and procedures established for management authorization for development or acquisition of new applications, systems, databases, infrastructure, services, operations, and facilities?",
      "Answer": "YES Note: In alignment with ISO 27001 standards, Red Hat has in place procedures to manage new development of resources.",
      "Value": 1,
      "ProviderId": 2
    },
    {
      "Id": 342,
      "SlaId": "RM-02.1",
      "Question": "Do you provide tenants with documentation which describes your production change management procedures and their roles/rights/responsibilities within it?",
      "Answer": "NO Note: Not at this time.",
      "Value": 0,
      "ProviderId": 2
    },
    {
      "Id": 343,
      "SlaId": "RM-03.1",
      "Question": "Do you provide your tenants with documentation which describes your quality assurance process?",
      "Answer": "NO Note: Red Hat incorporates standards of quality as part of the system development lifecycle (SDLC) processes which are in alignment with ISO 27001 standard. ",
      "Value": 0,
      "ProviderId": 2
    },
    {
      "Id": 344,
      "SlaId": "RM-04.1",
      "Question": "Do you have controls in place to ensure that standards of quality are being met for all software development?",
      "Answer": "YES Note: Red Hat does not outsource development of software.  Red Hat incorporates standards of quality as part of the system development lifecycle (SDLC) processes which are in alignment with ISO 27001 standards.",
      "Value": 1,
      "ProviderId": 2
    },
    {
      "Id": 345,
      "SlaId": "RM-04.2",
      "Question": "Do you have controls in place to detect source code security defects for any outsourced software development activities?",
      "Answer": "YES Note: ",
      "Value": 1,
      "ProviderId": 2
    },
    {
      "Id": 346,
      "SlaId": "RM-05.1",
      "Question": "Do you have controls in place to restrict and monitor the installation of unauthorized software onto your systems?",
      "Answer": "YES Note: Red Hat's program, processes and procedures for managing malicious software is in alignment with ISO 27001 standards.\n",
      "Value": 1,
      "ProviderId": 2
    },
    {
      "Id": 347,
      "SlaId": "RS-01.1",
      "Question": "Are Policy, process and procedures defining business continuity and disaster recovery in place to minimize the impact of a realized risk event and properly communicated to tenants?",
      "Answer": "YES Note: Red Hat Business Continuity Policies and Plans have been developed and tested in alignment with ISO 27001 standards.",
      "Value": 1,
      "ProviderId": 2
    },
    {
      "Id": 348,
      "SlaId": "RS-02.1",
      "Question": "Do you provide tenants with ongoing visibility and reporting into your operational Service Level Agreement (SLA) performance?",
      "Answer": "NO Note: Red Hat provides standard system-level monitoring tools for OpenShift cloud resources.\n",
      "Value": 0,
      "ProviderId": 2
    },
    {
      "Id": 349,
      "SlaId": "RS-02.2",
      "Question": "Do you make standards-based information security metrics (CSA, CAMM, etc.) available to your tenants?",
      "Answer": "NO Note: ",
      "Value": 0,
      "ProviderId": 2
    },
    {
      "Id": 350,
      "SlaId": "RS-02.3",
      "Question": "Do you provide customers with ongoing visibility and reporting into your SLA performance?",
      "Answer": "NO Note: ",
      "Value": 0,
      "ProviderId": 2
    },
    {
      "Id": 351,
      "SlaId": "RS-03.1",
      "Question": "Do you provide tenants with geographically resilient hosting options? ",
      "Answer": "NO Note: OpenShift currently only resides in one datacenter. Multi-geography and Multi-Provider support is not yet implemented.",
      "Value": 0,
      "ProviderId": 2
    },
    {
      "Id": 352,
      "SlaId": "RS-03.2",
      "Question": "Do you provide tenants with infrastructure service failover capability to other providers?",
      "Answer": "NO Note: ",
      "Value": 0,
      "ProviderId": 2
    },
    {
      "Id": 353,
      "SlaId": "RS-04.1",
      "Question": "Are business continuity plans subject to test at planned intervals or upon significant organizational or environmental changes to ensure continuing effectiveness?",
      "Answer": "NO Note: Red Hat Business Continuity Plans have been developed and tested in alignment with ISO 27001 standards.",
      "Value": 0,
      "ProviderId": 2
    },
    {
      "Id": 354,
      "SlaId": "RS-05.1",
      "Question": "Is physical protection against damage from natural causes and disasters as well as deliberate attacks anticipated, designed and countermeasures applied?",
      "Answer": "YES Note: Please see our Infrastructure as a Service Providers STAR  http://media.amazonwebservices.com/AWS_Risk_and_Compliance_Whitepaper.pdf",
      "Value": 1,
      "ProviderId": 2
    },
    {
      "Id": 355,
      "SlaId": "RS-06.1",
      "Question": "Are any of your datacenters located in places which have a high probability/occurrence of high-impact environmental risks (floods, tornadoes, earthquakes, hurricanes, etc.)?",
      "Answer": "NO Note: Please see our Infrastructure as a Service Providers STAR  http://media.amazonwebservices.com/AWS_Risk_and_Compliance_Whitepaper.pdf",
      "Value": 0,
      "ProviderId": 2
    },
    {
      "Id": 356,
      "SlaId": "RS-07.1",
      "Question": "Are Security mechanisms and redundancies implemented to protect equipment from utility service outages (e.g., power failures, network disruptions, etc.)?",
      "Answer": "YES Note: Please see our Infrastructure as a Service Providers STAR  http://media.amazonwebservices.com/AWS_Risk_and_Compliance_Whitepaper.pdf",
      "Value": 1,
      "ProviderId": 2
    },
    {
      "Id": 357,
      "SlaId": "RS-08.1",
      "Question": "Do you provide tenants with documentation showing the transport route of their data between your systems?",
      "Answer": "YES Note: OpenShift currently only resides in one datacenter. Multi-geography and Multi-Provider support is not yet implemented.",
      "Value": 1,
      "ProviderId": 2
    },
    {
      "Id": 358,
      "SlaId": "RS-08.2",
      "Question": "Can Tenants define how their data is transported and through which legal jurisdiction?",
      "Answer": "NO Note: ",
      "Value": 0,
      "ProviderId": 2
    },
    {
      "Id": 359,
      "SlaId": "SA-01.1",
      "Question": "Are all identified security, contractual and regulatory requirements for customer access contractually addressed and remediated prior to granting customers access to data, assets and information systems?",
      "Answer": "YES Note: Red Hat customers retain responsibility to ensure their usage of OpenShift is within compliance of applicable laws and regulations.",
      "Value": 1,
      "ProviderId": 2
    },
    {
      "Id": 360,
      "SlaId": "SA-02.1",
      "Question": "Do you support use of, or integration with, existing customer-based Single Sign On (SSO) solutions to your service?",
      "Answer": "NO Note: Red Hat uses ssh-key based authentication in addition to authentication via the RHN SSO service. Currently, there are no extensive identity management capabilities used or enforced. These features are planned for the future.",
      "Value": 0,
      "ProviderId": 2
    },
    {
      "Id": 361,
      "SlaId": "SA-02.2",
      "Question": "Do you use open standards to delegate authentication capabilities to your tenants?",
      "Answer": "NO Note: ",
      "Value": 0,
      "ProviderId": 2
    },
    {
      "Id": 362,
      "SlaId": "SA-02.3",
      "Question": "Do you support identity federation standards (SAML, SPML, WS-Federation, etc.) as a means of authenticating/authorizing users?",
      "Answer": "NO Note: ",
      "Value": 0,
      "ProviderId": 2
    },
    {
      "Id": 363,
      "SlaId": "SA-02.4",
      "Question": "Do you have a Policy Enforcement Point capability (ex. XACML) to enforce regional legal and policy constraints on user access?",
      "Answer": "NO Note: ",
      "Value": 0,
      "ProviderId": 2
    },
    {
      "Id": 364,
      "SlaId": "SA-02.5",
      "Question": "Do you have an identity management system in place which enables both role-based and context-based entitlement to data (enables classification of data for a tenant)?",
      "Answer": "NO Note: ",
      "Value": 0,
      "ProviderId": 2
    },
    {
      "Id": 365,
      "SlaId": "SA-02.6",
      "Question": "Do you provide tenants with strong (multifactor) authentication options (digital certs, tokens, biometric, etc..) for user access?",
      "Answer": "NO Note: ",
      "Value": 0,
      "ProviderId": 2
    },
    {
      "Id": 366,
      "SlaId": "SA-02.7",
      "Question": "Do you allow tenants to use third party identity assurance services?",
      "Answer": "NO Note: ",
      "Value": 0,
      "ProviderId": 2
    },
    {
      "Id": 367,
      "SlaId": "SA-03.1",
      "Question": "Is your Data Security Architecture designed using an industry standard? (ex. CDSA, MULITSAFE, CSA Trusted Cloud Architectural Standard, FedRAMP CAESARS)",
      "Answer": "NO Note: Red Hat Data Security Architecture was designed to incorporate industry leading practices.",
      "Value": 0,
      "ProviderId": 2
    },
    {
      "Id": 368,
      "SlaId": "SA-04.1",
      "Question": "Do you utilize industry standards (Build Security in Maturity Model [BSIMM] Benchmarks, Open Group ACS Trusted Technology Provider Framework, NIST, etc.) to build-in security for your Systems/Software Development Lifecycle (SDLC)?",
      "Answer": "NO Note: The OpenShift system development lifecycle incorporates industry best practices which include formal design reviews by the Red Hat Security Team, threat modeling and completion of a risk assessment. ",
      "Value": 0,
      "ProviderId": 2
    },
    {
      "Id": 369,
      "SlaId": "SA-04.2",
      "Question": "Do you utilize an automated source-code analysis tool to detect code security defects prior to production?",
      "Answer": "NO Note: ",
      "Value": 0,
      "ProviderId": 2
    },
    {
      "Id": 370,
      "SlaId": "SA-04.3",
      "Question": "Do you verify that all of your software suppliers adhere to industry standards for Systems/Software Development Lifecycle (SDLC) security?",
      "Answer": "NO Note: ",
      "Value": 0,
      "ProviderId": 2
    },
    {
      "Id": 371,
      "SlaId": "SA-05.1",
      "Question": "Are data input and output integrity routines (i.e., reconciliation and edit checks) implemented for application interfaces and databases to prevent manual or systematic processing errors or corruption of data?",
      "Answer": "NO Note: Not at this time.",
      "Value": 0,
      "ProviderId": 2
    },
    {
      "Id": 372,
      "SlaId": "SA-06.1",
      "Question": "For your SaaS or PaaS offering, do you provide tenants with separate environments for production and test processes?",
      "Answer": "NO Note: Customers may create separate application instances that can then be used as separate test and production applications. However, such an implementation is left to the customers' discretion. There is only one environment provided for each application container.",
      "Value": 0,
      "ProviderId": 2
    },
    {
      "Id": 373,
      "SlaId": "SA-06.2",
      "Question": "For your IaaS offering, do you provide tenants with guidance on how to create suitable production and test environments?",
      "Answer": "NA Note: ",
      "Value": 0,
      "ProviderId": 2
    },
    {
      "Id": 374,
      "SlaId": "SA-07.1",
      "Question": "Is multi-factor authentication required for all remote user access?",
      "Answer": "NO Note: Not at this time.",
      "Value": 0,
      "ProviderId": 2
    },
    {
      "Id": 375,
      "SlaId": "SA-08.1",
      "Question": "For your IaaS offering, do you provide customers with guidance on how to create a layered security architecture equivalence using your virtualized solution?",
      "Answer": "NA Note: Please see our Infrastructure as a Service Providers STAR  http://media.amazonwebservices.com/AWS_Risk_and_Compliance_Whitepaper.pdf",
      "Value": 0,
      "ProviderId": 2
    },
    {
      "Id": 376,
      "SlaId": "SA-09.1",
      "Question": "Are system and network environments logically separated to ensure Business and customer security requirements?",
      "Answer": "YES Note: OpenShift segments data and users resources with SELinux, cgroups, and polyinstantiation. Network level segmentation of environments is not currently done between Staging and Production, but is done between the Development and Production environments. We are looking to do this with VPC.",
      "Value": 1,
      "ProviderId": 2
    },
    {
      "Id": 377,
      "SlaId": "SA-09.2",
      "Question": "Are system and network environments logically separated to ensure compliance with legislative, regulatory, and contractual requirements?",
      "Answer": "YES Note: ",
      "Value": 1,
      "ProviderId": 2
    },
    {
      "Id": 378,
      "SlaId": "SA-09.3",
      "Question": "Are system and network environments logically separated to ensure separation of production and non-production environments?",
      "Answer": "YES Note: ",
      "Value": 1,
      "ProviderId": 2
    },
    {
      "Id": 379,
      "SlaId": "SA-09.4",
      "Question": "Are system and network environments logically separated to ensure  protection and isolation of sensitive data?",
      "Answer": "NO Note: ",
      "Value": 0,
      "ProviderId": 2
    },
    {
      "Id": 380,
      "SlaId": "SA-10.1",
      "Question": "Are policies and procedures established and mechanisms implemented to protect network environment perimeter and configured to restrict unauthorized traffic?",
      "Answer": "YES Note: Please see our Infrastructure as a Service Providers STAR  http://media.amazonwebservices.com/AWS_Risk_and_Compliance_Whitepaper.pdf",
      "Value": 1,
      "ProviderId": 2
    },
    {
      "Id": 381,
      "SlaId": "SA-10.2",
      "Question": "Are policies and procedures established and mechanisms implemented to ensure proper security settings enabled with strong encryption for authentication and transmission, replacing vendor default settings? (e.g., encryption keys, passwords, SNMP community strings, etc.)",
      "Answer": "YES Note: Not applicable",
      "Value": 1,
      "ProviderId": 2
    },
    {
      "Id": 382,
      "SlaId": "SA-10.3",
      "Question": "Are policies and procedures established and mechanisms implemented to protect  network environments and detect the presence of unauthorized (rogue) network devices for a timely disconnect from the network?",
      "Answer": "YES Note: Not applicable",
      "Value": 1,
      "ProviderId": 2
    },
    {
      "Id": 383,
      "SlaId": "SA-11.1",
      "Question": "Is access to systems with shared network infrastructure restricted to authorized personnel in accordance with security policies, procedures and standards. Networks shared with external entities shall have a documented plan detailing the compensating controls used to separate network traffic between organizations?",
      "Answer": "YES Note: Please see our Infrastructure as a Service Providers STAR  http://media.amazonwebservices.com/AWS_Risk_and_Compliance_Whitepaper.pdf",
      "Value": 1,
      "ProviderId": 2
    },
    {
      "Id": 384,
      "SlaId": "SA-12.1",
      "Question": "Do you utilize a synchronized time-service protocol (ex. NTP) to ensure all systems have a common time reference?",
      "Answer": "YES Note: In alignment with ISO 27001 standards, Red Hat information systems utilize internal system clocks synchronized via NTP (Network Time Protocol).\n",
      "Value": 1,
      "ProviderId": 2
    },
    {
      "Id": 385,
      "SlaId": "SA-13.1",
      "Question": "Is automated equipment identification used as a method of connection authentication to validate connection authentication integrity based on known equipment location?",
      "Answer": "YES Note: Please see our Infrastructure as a Service Providers STAR  http://media.amazonwebservices.com/AWS_Risk_and_Compliance_Whitepaper.pdf",
      "Value": 1,
      "ProviderId": 2
    },
    {
      "Id": 386,
      "SlaId": "SA-14.1",
      "Question": "Are file integrity (host) and network intrusion detection (IDS) tools implemented to help facilitate timely detection, investigation by root cause analysis and response to incidents?",
      "Answer": "YES Note: Red Hat Incident response program (detection, investigation and response to incidents) have been developed in alignment with ISO 27001 standards.",
      "Value": 1,
      "ProviderId": 2
    },
    {
      "Id": 387,
      "SlaId": "SA-14.2",
      "Question": "Is Physical and logical user access to audit logs restricted to authorized personnel?",
      "Answer": "YES Note: ",
      "Value": 1,
      "ProviderId": 2
    },
    {
      "Id": 388,
      "SlaId": "SA-14.3",
      "Question": "Can you provide evidence that due diligence mapping of regulations and standards to your controls/architecture/processes has been done?",
      "Answer": "NO Note: ",
      "Value": 0,
      "ProviderId": 2
    },
    {
      "Id": 389,
      "SlaId": "SA-15.1",
      "Question": "Is mobile code authorized before its installation and use and the code configuration checked to ensure that the authorized mobile code operates according to a clearly defined security policy?",
      "Answer": "NA Note: Red Hat allows customers to manage client and mobile applications to their own requirements.\n",
      "Value": 0,
      "ProviderId": 2
    },
    {
      "Id": 390,
      "SlaId": "SA-15.2",
      "Question": "Is all unauthorized mobile code prevented from executing?",
      "Answer": "NA Note: ",
      "Value": 0,
      "ProviderId": 2
    },
    {
      "SlaId": "CO-01",
      "Value": 1
    },
    {
      "SlaId": "CO-02",
      "Value": 0.5714285714285714
    },
    {
      "SlaId": "CO-03",
      "Value": 0.5
    },
    {
      "SlaId": "CO-04",
      "Value": 1
    },
    {
      "SlaId": "CO-05",
      "Value": 1
    },
    {
      "SlaId": "CO-06",
      "Value": 1
    },
    {
      "SlaId": "CO-07",
      "Value": 1
    },
    {
      "SlaId": "CO-08",
      "Value": 0
    },
    {
      "SlaId": "DG-01",
      "Value": 0
    },
    {
      "SlaId": "DG-02",
      "Value": 0.2
    },
    {
      "SlaId": "DG-03",
      "Value": 0.5
    },
    {
      "SlaId": "DG-04",
      "Value": 0.5
    },
    {
      "SlaId": "DG-05",
      "Value": 0.5
    },
    {
      "SlaId": "DG-06",
      "Value": 1
    },
    {
      "SlaId": "DG-07",
      "Value": 0.5
    },
    {
      "SlaId": "DG-08",
      "Value": 0
    },
    {
      "SlaId": "FS-01",
      "Value": 1
    },
    {
      "SlaId": "FS-02",
      "Value": 1
    },
    {
      "SlaId": "FS-03",
      "Value": 1
    },
    {
      "SlaId": "FS-04",
      "Value": 0
    },
    {
      "SlaId": "FS-05",
      "Value": 1
    },
    {
      "SlaId": "FS-06",
      "Value": 0
    },
    {
      "SlaId": "FS-07",
      "Value": 0
    },
    {
      "SlaId": "FS-08",
      "Value": 1
    },
    {
      "SlaId": "HR-01",
      "Value": 1
    },
    {
      "SlaId": "HR-02",
      "Value": 1
    },
    {
      "SlaId": "HR-03",
      "Value": 1
    },
    {
      "SlaId": "IS-01",
      "Value": 0
    },
    {
      "SlaId": "IS-02",
      "Value": 1
    },
    {
      "SlaId": "IS-03",
      "Value": 0.6666666666666666
    },
    {
      "SlaId": "IS-04",
      "Value": 0.6666666666666666
    },
    {
      "SlaId": "IS-05",
      "Value": 1
    },
    {
      "SlaId": "IS-06",
      "Value": 1
    },
    {
      "SlaId": "IS-07",
      "Value": 1
    },
    {
      "SlaId": "IS-08",
      "Value": 0.5
    },
    {
      "SlaId": "IS-09",
      "Value": 1
    },
    {
      "SlaId": "IS-10",
      "Value": 0
    },
    {
      "SlaId": "IS-11",
      "Value": 0.5
    },
    {
      "SlaId": "IS-12",
      "Value": 1
    },
    {
      "SlaId": "IS-13",
      "Value": 0
    },
    {
      "SlaId": "IS-14",
      "Value": 1
    },
    {
      "SlaId": "IS-15",
      "Value": 1
    },
    {
      "SlaId": "IS-16",
      "Value": 0.6666666666666666
    },
    {
      "SlaId": "IS-17",
      "Value": 0.6666666666666666
    },
    {
      "SlaId": "IS-18",
      "Value": 1
    },
    {
      "SlaId": "IS-19",
      "Value": 0.25
    },
    {
      "SlaId": "IS-20",
      "Value": 0.6666666666666666
    },
    {
      "SlaId": "IS-21",
      "Value": 1
    },
    {
      "SlaId": "IS-22",
      "Value": 0.3333333333333333
    },
    {
      "SlaId": "IS-23",
      "Value": 1
    },
    {
      "SlaId": "IS-24",
      "Value": 0.6666666666666666
    },
    {
      "SlaId": "IS-25",
      "Value": 0.5
    },
    {
      "SlaId": "IS-26",
      "Value": 0.6666666666666666
    },
    {
      "SlaId": "IS-27",
      "Value": 0.5
    },
    {
      "SlaId": "IS-28",
      "Value": 0.5
    },
    {
      "SlaId": "IS-29",
      "Value": 1
    },
    {
      "SlaId": "IS-30",
      "Value": 0
    },
    {
      "SlaId": "IS-31",
      "Value": 0.5
    },
    {
      "SlaId": "IS-32",
      "Value": 0
    },
    {
      "SlaId": "IS-33",
      "Value": 1
    },
    {
      "SlaId": "IS-34",
      "Value": 1
    },
    {
      "SlaId": "LG-01",
      "Value": 1
    },
    {
      "SlaId": "LG-02",
      "Value": 0.6666666666666666
    },
    {
      "SlaId": "OP-01",
      "Value": 1
    },
    {
      "SlaId": "OP-02",
      "Value": 1
    },
    {
      "SlaId": "OP-03",
      "Value": 0.5
    },
    {
      "SlaId": "OP-04",
      "Value": 0.4
    },
    {
      "SlaId": "RI-01",
      "Value": 0.5
    },
    {
      "SlaId": "RI-02",
      "Value": 1
    },
    {
      "SlaId": "RI-03",
      "Value": 1
    },
    {
      "SlaId": "RI-04",
      "Value": 1
    },
    {
      "SlaId": "RI-05",
      "Value": 0.14285714285714285
    },
    {
      "SlaId": "RM-01",
      "Value": 1
    },
    {
      "SlaId": "RM-02",
      "Value": 0
    },
    {
      "SlaId": "RM-03",
      "Value": 0
    },
    {
      "SlaId": "RM-04",
      "Value": 1
    },
    {
      "SlaId": "RM-05",
      "Value": 1
    },
    {
      "SlaId": "RS-01",
      "Value": 1
    },
    {
      "SlaId": "RS-02",
      "Value": 0
    },
    {
      "SlaId": "RS-03",
      "Value": 0
    },
    {
      "SlaId": "RS-04",
      "Value": 0
    },
    {
      "SlaId": "RS-05",
      "Value": 1
    },
    {
      "SlaId": "RS-06",
      "Value": 0
    },
    {
      "SlaId": "RS-07",
      "Value": 1
    },
    {
      "SlaId": "RS-08",
      "Value": 0.5
    },
    {
      "SlaId": "SA-01",
      "Value": 1
    },
    {
      "SlaId": "SA-02",
      "Value": 0
    },
    {
      "SlaId": "SA-03",
      "Value": 0
    },
    {
      "SlaId": "SA-04",
      "Value": 0
    },
    {
      "SlaId": "SA-05",
      "Value": 0
    },
    {
      "SlaId": "SA-06",
      "Value": 0
    },
    {
      "SlaId": "SA-07",
      "Value": 0
    },
    {
      "SlaId": "SA-08",
      "Value": 0
    },
    {
      "SlaId": "SA-09",
      "Value": 0.75
    },
    {
      "SlaId": "SA-10",
      "Value": 1
    },
    {
      "SlaId": "SA-11",
      "Value": 1
    },
    {
      "SlaId": "SA-12",
      "Value": 1
    },
    {
      "SlaId": "SA-13",
      "Value": 1
    },
    {
      "SlaId": "SA-14",
      "Value": 0.6666666666666666
    },
    {
      "SlaId": "SA-15",
      "Value": 0
    }
  ]
}